{
  "url": "https://gitlab@whetstone.private.storage/privatestorage/tahoe-capabilities",
  "rev": "171e0a83133449d8fdefc6e4485e9908b724cca8",
  "sha256": "1bfi2zqhfhmkffa0jgvk1vd0bjvvkgxzg5l3whnxp7jhgl7kql8v",
  "private": false,
  "fetchSubmodules": false,
  "branch": "reflex-platform-compatibility"
}
